<svg width="26" height="26" viewBox="0 0 26 26" fill="none" xmlns="http://www.w3.org/2000/svg">
<ellipse cx="19.3717" cy="11.1475" rx="0.894415" ry="1.07345" fill="#8A8D9F"/>
<path d="M21.4665 2.85384H20.2012V1.88086C20.2111 1.52665 20.0277 1.19503 19.7225 1.01502C19.4173 0.835001 19.0384 0.835001 18.7332 1.01502C18.4279 1.19503 18.2446 1.52665 18.2545 1.88086V2.85384H13.8247V1.88086C13.8346 1.52665 13.6512 1.19503 13.346 1.01502C13.0408 0.835001 12.6619 0.835001 12.3567 1.01502C12.0515 1.19503 11.8681 1.52665 11.878 1.88086V2.85384H7.49657V1.88086C7.48188 1.35385 7.05043 0.934243 6.52321 0.934243C5.996 0.934243 5.56454 1.35385 5.54986 1.88086V2.85384H4.33363C2.18397 2.85633 0.441951 4.59835 0.439453 6.74802V21.9319C0.440702 24.0825 2.18309 25.8259 4.33363 25.8284H11.7805C12.1348 25.8382 12.4664 25.6549 12.6464 25.3497C12.8264 25.0445 12.8264 24.6655 12.6464 24.3603C12.4664 24.0551 12.1348 23.8718 11.7805 23.8816H4.33363C3.25901 23.8804 2.38817 23.0096 2.38692 21.9349V6.74802C2.38817 5.67339 3.25901 4.80255 4.33363 4.8013H5.55061V5.77428C5.56529 6.30129 5.99675 6.7209 6.52397 6.7209C7.05118 6.7209 7.48264 6.30129 7.49732 5.77428V4.8013H11.8787V5.77428C11.8689 6.12849 12.0522 6.46011 12.3574 6.64012C12.6626 6.82014 13.0416 6.82014 13.3468 6.64012C13.652 6.46011 13.8353 6.12849 13.8255 5.77428V4.8013H18.2545V5.77428C18.2446 6.12849 18.4279 6.46011 18.7332 6.64012C19.0384 6.82014 19.4173 6.82014 19.7225 6.64012C20.0277 6.46011 20.2111 6.12849 20.2012 5.77428V4.8013H21.4665C22.5411 4.80255 23.412 5.67339 23.4132 6.74802V12.2966C23.4279 12.8236 23.8594 13.2432 24.3866 13.2432C24.9138 13.2432 25.3453 12.8236 25.3599 12.2966V6.74802C25.3574 4.59865 23.6159 2.85675 21.4665 2.85384Z" fill="#8A8D9F"/>
<path fill-rule="evenodd" clip-rule="evenodd" d="M13.9389 20.1173C13.9389 16.9633 16.4958 14.4064 19.6498 14.4064C22.8025 14.4097 25.3575 16.9647 25.3608 20.1173C25.3608 23.2714 22.8039 25.8283 19.6498 25.8283C16.4958 25.8283 13.9389 23.2714 13.9389 20.1173ZM15.8266 20.1174C15.8266 22.2289 17.5383 23.9406 19.6497 23.9406C21.7602 23.9381 23.4704 22.2278 23.4729 20.1174C23.4729 18.0059 21.7612 16.2942 19.6497 16.2942C17.5383 16.2942 15.8266 18.0059 15.8266 20.1174Z" fill="#8A8D9F"/>
<path d="M21.0187 18.9963H20.5949V18.0052C20.5949 17.4837 20.1721 17.061 19.6506 17.061C19.1291 17.061 18.7063 17.4837 18.7063 18.0052V19.9406C18.7063 20.4621 19.1291 20.8849 19.6506 20.8849H21.0194C21.5409 20.8849 21.9637 20.4621 21.9637 19.9406C21.9637 19.4191 21.5409 18.9963 21.0194 18.9963H21.0187Z" fill="#8A8D9F"/>
<ellipse cx="14.9343" cy="11.1475" rx="0.894415" ry="1.07345" fill="#8A8D9F"/>
<circle cx="10.8666" cy="15.4021" r="0.894415" fill="#8A8D9F"/>
<ellipse cx="6.42852" cy="11.1475" rx="0.894415" ry="1.07345" fill="#8A8D9F"/>
<circle cx="6.42852" cy="15.4021" r="0.894415" fill="#8A8D9F"/>
<ellipse cx="6.42852" cy="19.6581" rx="0.894415" ry="1.07345" fill="#8A8D9F"/>
<ellipse cx="10.8666" cy="19.6581" rx="0.894415" ry="1.07345" fill="#8A8D9F"/>
<ellipse cx="10.8666" cy="11.1475" rx="0.894415" ry="1.07345" fill="#8A8D9F"/>
</svg>
