<svg width="24" height="24" viewBox="0 0 24 24" fill="none" xmlns="http://www.w3.org/2000/svg">
<path opacity="0.5" fill-rule="evenodd" clip-rule="evenodd" d="M23.121 9.04811L15.536 1.46211C13.5815 -0.48672 10.4186 -0.48672 8.46402 1.46211L0.879024 9.04811C0.314311 9.60921 -0.00224323 10.373 2.40638e-05 11.1691V20.9861C2.40638e-05 22.643 1.34317 23.9861 3.00002 23.9861H21C22.6569 23.9861 24 22.643 24 20.9861V11.1691C24.0023 10.373 23.6857 9.60921 23.121 9.04811ZM9.00002 21.9861V18.0521C9.00002 16.3953 10.3432 15.0521 12 15.0521C13.6569 15.0521 15 16.3953 15 18.0521V21.9861H9.00002ZM21 21.9861C21.5523 21.9861 22 21.5384 22 20.9861V11.1651C21.9973 10.9025 21.8921 10.6514 21.707 10.4651L14.122 2.87911C12.9485 1.71104 11.0516 1.71104 9.87802 2.87911L2.29302 10.4621C2.10621 10.6501 2.00095 10.9041 2.00002 11.1691V20.9861C2.00002 21.5384 2.44774 21.9861 3.00002 21.9861H7.00002V18.0521C7.00002 15.2907 9.2386 13.0521 12 13.0521C14.7614 13.0521 17 15.2907 17 18.0521V21.9861H21Z" fill="#8A8D9F"/>
</svg>
