<svg width="25" height="25" viewBox="0 0 25 25" fill="none" xmlns="http://www.w3.org/2000/svg">
<path fill-rule="evenodd" clip-rule="evenodd" d="M0.914009 17.5922C2.77128 22.0761 7.14666 24.9998 12 25C15.1843 25.0085 18.2396 23.7428 20.485 21.4851C23.5577 18.462 24.773 14.0232 23.6686 9.8566C22.5643 5.68999 19.3101 2.43578 15.1435 1.33145C10.9769 0.227125 6.53807 1.44237 3.51503 4.51505C0.0832934 7.94702 -0.943265 13.1082 0.914009 17.5922ZM5.28103 11.904C5.42226 11.7649 5.61278 11.6873 5.81103 11.688C6.00868 11.6864 6.19904 11.7626 6.34103 11.9001L9.62503 15.1341L16.659 8.21605C16.9542 7.92834 17.4249 7.92834 17.72 8.21605L18.78 9.25705C18.9202 9.39436 18.9992 9.58232 18.9992 9.77855C18.9992 9.97478 18.9202 10.1627 18.78 10.3L10.155 18.784C9.85988 19.0718 9.38918 19.0718 9.09403 18.784L4.22003 13.99C4.07934 13.853 3.99999 13.6649 3.99999 13.4685C3.99999 13.2722 4.07934 13.0841 4.22003 12.9471L5.28103 11.904Z" fill="white"/>
</svg>
