<svg width="17" height="17" viewBox="0 0 17 17" fill="none" xmlns="http://www.w3.org/2000/svg">
<path fill-rule="evenodd" clip-rule="evenodd" d="M16.146 5.24478C14.8544 2.12712 11.8118 0.0945664 8.43721 0.0949707C6.2247 0.0947055 4.10272 0.973507 2.53824 2.53799C0.973751 4.10248 0.0949497 6.22445 0.0952148 8.43697C0.0948105 11.8116 2.12737 14.8541 5.24503 16.1457C8.36268 17.4373 11.9514 16.7236 14.3376 14.3374C16.7238 11.9512 17.4375 8.36244 16.146 5.24478ZM8.43221 9.91697H4.53221C4.42561 9.91697 4.32341 9.87442 4.24831 9.79875C4.1732 9.72309 4.13142 9.62058 4.13222 9.51397V7.35697C4.13222 7.13606 4.3113 6.95697 4.53221 6.95697H8.43721V4.57197C8.43281 4.40639 8.5309 4.25523 8.68391 4.19181C8.83692 4.12838 9.0132 4.16583 9.12721 4.28597L12.9722 8.15397C13.0482 8.22912 13.091 8.33157 13.091 8.43847C13.091 8.54537 13.0482 8.64783 12.9722 8.72297L9.12222 12.588C9.0082 12.7081 8.83192 12.7456 8.67891 12.6821C8.5259 12.6187 8.4278 12.4675 8.43221 12.302V9.91697Z" fill="#FF5C3A"/>
</svg>
