<svg width="20" height="20" viewBox="0 0 20 20" fill="none" xmlns="http://www.w3.org/2000/svg">
<circle cx="10" cy="10" r="10" fill="#FFA200"/>
<path fill-rule="evenodd" clip-rule="evenodd" d="M8.25733 12.7102C8.66431 13.2904 9.14145 13.9706 9.7 14.781H9.704C9.80041 14.92 9.95883 15.0029 10.128 15.0029C10.2972 15.0029 10.4556 14.92 10.552 14.781C11.1105 13.9706 11.5877 13.2904 11.9947 12.7102C13.8611 10.0494 14.252 9.49211 14.252 8.126C14.252 5.84727 12.4047 4 10.126 4C7.84727 4 6 5.84727 6 8.126C6 9.49211 6.39092 10.0494 8.25733 12.7102ZM11.7136 8.78522C11.4469 9.4275 10.8195 9.84581 10.124 9.845H10.126C9.67009 9.845 9.23286 9.66389 8.91048 9.34152C8.58811 9.01914 8.407 8.58191 8.407 8.126C8.407 7.43055 8.82604 6.80361 9.46863 6.53766C10.1112 6.27171 10.8508 6.41915 11.3422 6.91119C11.8337 7.40324 11.9803 8.14294 11.7136 8.78522Z" fill="white"/>
</svg>
