<svg width="18" height="10" viewBox="0 0 18 10" fill="none" xmlns="http://www.w3.org/2000/svg">
<path d="M9.49941e-07 4.75098C-0.000795609 3.49096 0.499394 2.28231 1.39036 1.39134C2.28133 0.50037 3.48998 0.000180954 4.75 0.000977512H13.817C15.7246 0.000977512 17.271 1.54739 17.271 3.45498C17.271 5.36257 15.7246 6.90898 13.817 6.90898H6.477C5.28462 6.90898 4.318 5.94236 4.318 4.74998C4.318 3.55759 5.28462 2.59098 6.477 2.59098H12.954V4.31798H6.4C5.925 4.31798 5.925 5.18198 6.4 5.18198H13.818C14.7718 5.18198 15.545 4.40877 15.545 3.45498C15.545 2.50118 14.7718 1.72798 13.818 1.72798H4.75C3.08072 1.72798 1.7275 3.0812 1.7275 4.75048C1.7275 6.41976 3.08072 7.77298 4.75 7.77298H12.95V9.50098H4.75C3.48998 9.50177 2.28133 9.00159 1.39036 8.11061C0.499394 7.21964 -0.000795609 6.011 9.49941e-07 4.75098Z" fill="#1C67F6"/>
</svg>
