<svg width="27" height="23" viewBox="0 0 27 23" fill="none" xmlns="http://www.w3.org/2000/svg">
<g opacity="0.5">
<path fill-rule="evenodd" clip-rule="evenodd" d="M6.23814 23H20.9001C23.9306 22.85 26.2714 20.2813 26.1401 17.25V5.75C26.2714 2.71865 23.9306 0.150023 20.9001 0H6.23814C3.20845 0.151083 0.868836 2.71939 1.00014 5.75V17.25C0.868836 20.2806 3.20845 22.8489 6.23814 23ZM3.10014 5.75C3.01919 3.93265 4.42128 2.39116 6.23814 2.3H20.9001C22.719 2.38851 24.124 3.9308 24.0431 5.75V17.25C24.124 19.0692 22.719 20.6115 20.9001 20.7H6.23814C4.42128 20.6088 3.01919 19.0673 3.10014 17.25V5.75Z" fill="#1C6AFE"/>
<path d="M20.9031 12.552H12.5231C11.9432 12.552 11.4731 12.0819 11.4731 11.502C11.4731 10.9221 11.9432 10.452 12.5231 10.452H20.9031C21.483 10.452 21.9531 10.9221 21.9531 11.502C21.9531 12.0819 21.483 12.552 20.9031 12.552V12.552Z" fill="#1C6AFE"/>
<path d="M8.33314 12.552H6.23314C5.65324 12.552 5.18314 12.0819 5.18314 11.502C5.18314 10.9221 5.65324 10.452 6.23314 10.452H8.33314C8.91304 10.452 9.38314 10.9221 9.38314 11.502C9.38314 12.0819 8.91304 12.552 8.33314 12.552V12.552Z" fill="#1C6AFE"/>
<path d="M14.6181 18.359H6.23814C5.65824 18.359 5.18814 17.8889 5.18814 17.309C5.18814 16.7291 5.65824 16.259 6.23814 16.259H14.6181C15.198 16.259 15.6681 16.7291 15.6681 17.309C15.6681 17.8889 15.198 18.359 14.6181 18.359V18.359Z" fill="#1C6AFE"/>
<path d="M20.9031 18.359H18.8031C18.2232 18.359 17.7531 17.8889 17.7531 17.309C17.7531 16.7291 18.2232 16.259 18.8031 16.259H20.9031C21.483 16.259 21.9531 16.7291 21.9531 17.309C21.9531 17.8889 21.483 18.359 20.9031 18.359Z" fill="#1C6AFE"/>
</g>
</svg>
