<svg width="22" height="23" viewBox="0 0 22 23" fill="none" xmlns="http://www.w3.org/2000/svg">
<path d="M9.96693 22.186C10.834 22.166 11.5605 21.5241 11.6869 20.666H8.17993C8.31022 21.5491 9.07441 22.1991 9.96693 22.186Z" fill="white"/>
<path d="M19.64 17.886C18.9973 17.313 18.4346 16.6561 17.967 15.933C17.4564 14.9346 17.1505 13.8443 17.067 12.726V9.43299C17.0642 9.03306 17.0284 8.63404 16.96 8.23999C16.4354 8.13507 15.9312 7.94596 15.467 7.67999C15.6441 8.24987 15.7341 8.84323 15.734 9.43999V12.733C15.8157 14.097 16.1909 15.4273 16.834 16.633C17.2944 17.3623 17.8406 18.0338 18.461 18.633H1.387C2.00739 18.0338 2.55363 17.3623 3.014 16.633C3.65708 15.4273 4.0323 14.097 4.114 12.733V9.43299C4.10709 7.87489 4.72025 6.37803 5.81824 5.27253C6.91624 4.16703 8.40889 3.54369 9.967 3.53999C11.0961 3.54096 12.1998 3.87489 13.14 4.49999C13.0364 4.11919 12.9783 3.72746 12.967 3.33299V2.91299C12.271 2.57048 11.5233 2.34512 10.754 2.24599V1.40599C10.754 0.914458 10.3555 0.515991 9.864 0.515991C9.37247 0.515991 8.974 0.914458 8.974 1.40599V2.27899C5.41168 2.78166 2.76567 5.83439 2.774 9.43199V12.725C2.69055 13.8433 2.38456 14.9336 1.874 15.932C1.41446 16.6535 0.860557 17.3103 0.227 17.885C0.0830556 18.0113 0.000369973 18.1935 0 18.385V19.292C0 19.6604 0.298626 19.959 0.667 19.959H19.2C19.5684 19.959 19.867 19.6604 19.867 19.292V18.385C19.8666 18.1935 19.7839 18.0113 19.64 17.885V17.886Z" fill="white"/>
<path d="M21.3 3.333C21.3 5.17377 19.8078 6.666 17.967 6.666C16.1263 6.666 14.634 5.17377 14.634 3.333C14.634 1.49223 16.1263 0 17.967 0C19.8078 0 21.3 1.49223 21.3 3.333Z" fill="#FEBE00"/>
</svg>
