<svg width="19" height="20" viewBox="0 0 19 20" fill="none" xmlns="http://www.w3.org/2000/svg">
<path fill-rule="evenodd" clip-rule="evenodd" d="M9.5 10C6.73858 10 4.5 7.76142 4.5 5C4.5 2.23858 6.73858 0 9.5 0C12.2614 0 14.5 2.23858 14.5 5C14.4967 7.76005 12.2601 9.99669 9.5 10ZM17.5 20C16.9477 20 16.5 19.5523 16.5 19V17C16.5 15.3431 15.1569 14 13.5 14H5.5C3.84315 14 2.5 15.3431 2.5 17V19C2.5 19.5523 2.05228 20 1.5 20C0.947715 20 0.5 19.5523 0.5 19V17C0.503306 14.2399 2.73995 12.0033 5.5 12H13.5C16.2601 12.0033 18.4967 14.2399 18.5 17V19C18.5 19.5523 18.0523 20 17.5 20ZM6.5 5C6.5 3.34315 7.84315 2 9.5 2C11.1569 2 12.5 3.34315 12.5 5C12.5 6.65685 11.1569 8 9.5 8C7.84315 8 6.5 6.65685 6.5 5Z" fill="black"/>
<mask id="mask0_0_10024" style="mask-type:luminance" maskUnits="userSpaceOnUse" x="0" y="0" width="19" height="20">
<path fill-rule="evenodd" clip-rule="evenodd" d="M17.5 20C16.9477 20 16.5 19.5523 16.5 19V17C16.5 15.3431 15.1569 14 13.5 14H5.5C3.84315 14 2.5 15.3431 2.5 17V19C2.5 19.5523 2.05228 20 1.5 20C0.947715 20 0.5 19.5523 0.5 19V17C0.503306 14.2399 2.73995 12.0033 5.5 12H13.5C16.2601 12.0033 18.4967 14.2399 18.5 17V19C18.5 19.5523 18.0523 20 17.5 20ZM9.5 10C6.73858 10 4.5 7.76142 4.5 5C4.5 2.23858 6.73858 0 9.5 0C12.2614 0 14.5 2.23858 14.5 5C14.4967 7.76005 12.2601 9.99669 9.5 10ZM9.5 2C7.84315 2 6.5 3.34315 6.5 5C6.5 6.65685 7.84315 8 9.5 8C11.1569 8 12.5 6.65685 12.5 5C12.5 3.34315 11.1569 2 9.5 2Z" fill="white"/>
</mask>
<g mask="url(#mask0_0_10024)">
<rect x="-2.5" y="-2" width="24" height="24" fill="#1C67F6"/>
</g>
</svg>
