<svg width="19" height="25" viewBox="0 0 19 25" fill="none" xmlns="http://www.w3.org/2000/svg">
<g opacity="0.5">
<path fill-rule="evenodd" clip-rule="evenodd" d="M15.572 7.00003C15.4912 10.3919 12.678 13.0772 9.286 13C5.89533 13.0738 3.08407 10.3905 3 7.00003C3.0808 3.60815 5.89403 0.922914 9.286 1.00003C12.678 0.922914 15.4912 3.60815 15.572 7.00003ZM9.288 2.99999C11.5479 2.95079 13.4214 4.74003 13.476 7.00003C13.4214 9.2607 11.5468 11.0503 9.286 11C7.02678 11.0481 5.1546 9.2591 5.1 7.00003C5.15458 4.74003 7.02813 2.95079 9.288 2.99999Z" fill="#8A8D9F"/>
<path d="M9.286 15C4.23907 14.9276 0.0854793 18.9533 0 24C0.0173506 24.5572 0.474048 24.9999 1.0315 24.9999C1.58895 24.9999 2.04565 24.5572 2.063 24C2.12547 20.0732 5.35817 16.9399 9.285 17C13.2118 16.9399 16.4445 20.0732 16.507 24C16.5244 24.5572 16.981 24.9999 17.5385 24.9999C18.096 24.9999 18.5526 24.5572 18.57 24C18.4845 18.9541 14.3322 14.9287 9.286 15Z" fill="#8A8D9F"/>
</g>
</svg>
